Anova em delineamento de Parcelas Subdivididas
…
pacote 'lme4' desempacotado com sucesso e somas MD5 verificadas

Os pacotes binários baixados estão em
    C:\Users\Public\Documents\Wondershare\CreatorTemp\RtmpkPRwJH\downloaded_packages

library(lme4)

# Criando a variável de interação entre 'hybrid' e 'block'
milho$hybrid_block <- interaction(milho$hybrid, milho$block)  # Cria uma nova variável que representa a interação entre híbrido e bloco

# Outra forma de criar a interação 'hybrid' e 'block'
milho |> 
  mutate(hybrid_block = interaction(hybrid, block)) # Criação da interação com mutate, que também adiciona essa variável ao dataframe

# A tibble: 48 × 6
   hybrid   block method index yield hybrid_block
   <chr>    <dbl> <chr>  <dbl> <dbl> <fct>       
 1 30F53 HX     1 pin     21.1 12920 30F53 HX.1  
 2 30F53 HX     2 pin     21.1  9870 30F53 HX.2  
 3 30F53 HX     3 pin     23.3  8920 30F53 HX.3  
 4 30F53 HX     4 pin     35.6 13120 30F53 HX.4  
 5 30F53 YH     1 pin     21.1 12060 30F53 YH.1  
 6 30F53 YH     2 pin     22.2  7860 30F53 YH.2  
 7 30F53 YH     3 pin     27.3  7410 30F53 YH.3  
 8 30F53 YH     4 pin     27.8 10300 30F53 YH.4  
 9 30K64        1 pin     20   11700 30K64.1     
10 30K64        2 pin     20   10700 30K64.2     
# ℹ 38 more rows
…
